{"current_page":2,"data":[{"fact":"During the time of the Spanish Inquisition, Pope Innocent VIII condemned cats as evil and thousands of cats were burned. Unfortunately, the widespread killing of cats led to an explosion of the rat population, which exacerbated the effects of the Black Death.","length":259},{"fact":"During the Middle Ages, cats were associated with withcraft, and on St. John\u2019s Day, people all over Europe would stuff them into sacks and toss the cats into bonfires. On holy days, people celebrated by tossing cats from church towers.","length":235},{"fact":"The first cat in space was a French cat named Felicette (a.k.a. \u201cAstrocat\u201d) In 1963, France blasted the cat into outer space. Electrodes implanted in her brains sent neurological signals back to Earth. She survived the trip.","length":224},{"fact":"The group of words associated with cat (catt,\u00a0cath,\u00a0chat,\u00a0katze) stem from the Latin\u00a0catus, meaning domestic cat, as opposed to\u00a0feles, or wild cat.","length":147},{"fact":"The term \u201cpuss\u201d is the root of the principal word for \u201ccat\u201d in the Romanian term pisica and the root of secondary words in Lithuanian (puz) and Low German\u00a0puus. Some scholars suggest that \u201cpuss\u201d could be imitative of the hissing sound used to get a cat\u2019s attention. As a slang word for the female pudenda, it could be associated with the connotation of a cat being soft, warm, and fuzzy.","length":387},{"fact":"Approximately 40,000 people are bitten by cats in the U.S. annually.","length":68},{"fact":"Cats are the world's most popular pets, outnumbering dogs by as many as three to one","length":84},{"fact":"Cats are North America\u2019s most popular pets: there are 73 million cats compared to 63 million dogs. Over 30% of households in North America own a cat.","length":149},{"fact":"According to Hebrew legend, Noah prayed to God for help protecting all the food he stored on the ark from being eaten by rats. In reply, God made the lion sneeze, and out popped a cat.","length":184},{"fact":"A cat\u2019s hearing is better than a dog\u2019s. And a cat can hear high-frequency sounds up to two octaves higher than a human.","length":119}],"first_page_url":"https:\/\/catfact.ninja\/facts?page=1","from":11,"last_page":34,"last_page_url":"https:\/\/catfact.ninja\/facts?page=34","links":[{"url":"https:\/\/catfact.ninja\/facts?page=1","label":"Previous","active":false},{"url":"https:\/\/catfact.ninja\/facts?page=1","label":"1","active":false},{"url":"https:\/\/catfact.ninja\/facts?page=2","label":"2","active":true},{"url":"https:\/\/catfact.ninja\/facts?page=3","label":"3","active":false},{"url":"https:\/\/catfact.ninja\/facts?page=4","label":"4","active":false},{"url":"https:\/\/catfact.ninja\/facts?page=5","label":"5","active":false},{"url":"https:\/\/catfact.ninja\/facts?page=6","label":"6","active":false},{"url":"https:\/\/catfact.ninja\/facts?page=7","label":"7","active":false},{"url":"https:\/\/catfact.ninja\/facts?page=8","label":"8","active":false},{"url":"https:\/\/catfact.ninja\/facts?page=9","label":"9","active":false},{"url":"https:\/\/catfact.ninja\/facts?page=10","label":"10","active":false},{"url":null,"label":"...","active":false},{"url":"https:\/\/catfact.ninja\/facts?page=33","label":"33","active":false},{"url":"https:\/\/catfact.ninja\/facts?page=34","label":"34","active":false},{"url":"https:\/\/catfact.ninja\/facts?page=3","label":"Next","active":false}],"next_page_url":"https:\/\/catfact.ninja\/facts?page=3","path":"https:\/\/catfact.ninja\/facts","per_page":10,"prev_page_url":"https:\/\/catfact.ninja\/facts?page=1","to":20,"total":332}